{
  "ctrlCfg": {
    "type": "FelixClient",
    "cfg": {
      "FelixClient": {
        "localIPorInterface": "lo",
        "logLevel": "info",
        "busDir": "/tmp/bus",
        "busGroupName": "FELIX",
        "verboseBus": false,
	"timeout": 1000,
        "netioPages": 256,
        "netioPagesize": 65536
      },
      "ToFLX": {
        "detectorID": 0,
        "connectorID": 0,
        "protocol": 0,
        "flip": false,
        "broadcast": false,
	"pixFwTrigger": false,
	"bufferSize": 1024,
	"idleWords": [170,170],
	"isCmdEmptyWaitTime": 500
      },
      "ToHost": {
        "detectorID": 0,
        "connectorID": 0,
        "protocol": 0,
        "flushWaitTime": 1,
        "enableMonitor": false,
        "monitorInterval": 1000,
        "queueLimitMB": 4000,
        "waitTime": 500
      }
    }
  }
}
