{
  "scan": {
    "analysis": {
      "0": {
        "algorithm": "OccGlobalThresholdTune"
      },
      "n_count": 1
    },
    "histogrammer": {
      "0": {
        "algorithm": "OccupancyMap",
        "config": {}
      },
      "1": {
        "algorithm": "TotMap",
        "config": {}
      },
      "2": {
        "algorithm": "Tot2Map",
        "config": {}
      },
      "3": {
        "algorithm": "TagDist",
        "config": {}
      },
      "4": {
        "algorithm": "HitsPerEvent",
        "config": {}
      },
      "n_count": 5
    },
    "loops": [
      { "config": {
          "max": 350,
          "min": 0,
          "step": 32,
          "parameter": "DiffTh1",
          "pixelReg": 0,
          "rstPixelReg": true

        },
        "loopAction": "Itkpixv2GlobalFeedback"
      },
      {
        "config": {
          "max": 64,
          "min": 0,
          "step": 4
        },
        "loopAction": "Itkpixv2ParMaskLoop"
      },
      {
        "config": {
          "max": 50,
          "min": 0,
          "step": 1,
          "nSteps": 5
        },
        "loopAction": "Itkpixv2CoreColLoop"
      },
      {
        "config": {
          "count": 50,
          "delay": 56,
          "extTrigger": false,
          "frequency": 5000,
          "noInject": false,
          "time": 0,
          "edgeMode": false
        },
        "loopAction": "Itkpixv2TriggerLoop"
      },
      {
        "loopAction": "StdDataLoop"
      }
    ],
    "name": "TuneGlobalThreshold",
    "prescan": {
        "InjVcalRange": 1,
        "InjDigEn": 0,
        "Latency": 60
    }
  }
}
